%YAML 1.1
%TAG !u! tag:unity3d.com,2011:
--- !u!74 &7400000
AnimationClip:
  m_ObjectHideFlags: 0
  m_CorrespondingSourceObject: {fileID: 0}
  m_PrefabInstance: {fileID: 0}
  m_PrefabAsset: {fileID: 0}
  m_Name: IDLE
  serializedVersion: 6
  m_Legacy: 0
  m_Compressed: 0
  m_UseHighQualityCurve: 1
  m_RotationCurves: []
  m_CompressedRotationCurves: []
  m_EulerCurves: []
  m_PositionCurves: []
  m_ScaleCurves: []
  m_FloatCurves: []
  m_PPtrCurves:
  - curve:
    - time: 0
      value: {fileID: 21300000, guid: 5bce9d639b0445c48be7f0cc85ebad18, type: 3}
    - time: 0.16666667
      value: {fileID: 21300000, guid: c3557ff0a5d7954408a644924018fb72, type: 3}
    - time: 0.33333334
      value: {fileID: 21300000, guid: a1b2b2539f2160642a9ac5d22488d3ad, type: 3}
    - time: 0.5
      value: {fileID: 21300000, guid: 4362fbedfcbcf6c43a58a57a15c1d1b6, type: 3}
    - time: 0.6666667
      value: {fileID: 21300000, guid: 6189c67384d98394698176b54075c073, type: 3}
    - time: 0.8333333
      value: {fileID: 21300000, guid: 9e1ece3f00f979644838d46f6a8568ad, type: 3}
    - time: 1
      value: {fileID: 21300000, guid: 9b98852bb312eb248a526ef7d381a274, type: 3}
    - time: 1.1666666
      value: {fileID: 21300000, guid: a279aae574bcecf4787f7c777658163d, type: 3}
    attribute: m_Sprite
    path: Anim
    classID: 212
    script: {fileID: 0}
  m_SampleRate: 60
  m_WrapMode: 0
  m_Bounds:
    m_Center: {x: 0, y: 0, z: 0}
    m_Extent: {x: 0, y: 0, z: 0}
  m_ClipBindingConstant:
    genericBindings:
    - serializedVersion: 2
      path: 3348745061
      attribute: 0
      script: {fileID: 0}
      typeID: 212
      customType: 23
      isPPtrCurve: 1
    pptrCurveMapping:
    - {fileID: 21300000, guid: 5bce9d639b0445c48be7f0cc85ebad18, type: 3}
    - {fileID: 21300000, guid: c3557ff0a5d7954408a644924018fb72, type: 3}
    - {fileID: 21300000, guid: a1b2b2539f2160642a9ac5d22488d3ad, type: 3}
    - {fileID: 21300000, guid: 4362fbedfcbcf6c43a58a57a15c1d1b6, type: 3}
    - {fileID: 21300000, guid: 6189c67384d98394698176b54075c073, type: 3}
    - {fileID: 21300000, guid: 9e1ece3f00f979644838d46f6a8568ad, type: 3}
    - {fileID: 21300000, guid: 9b98852bb312eb248a526ef7d381a274, type: 3}
    - {fileID: 21300000, guid: a279aae574bcecf4787f7c777658163d, type: 3}
  m_AnimationClipSettings:
    serializedVersion: 2
    m_AdditiveReferencePoseClip: {fileID: 0}
    m_AdditiveReferencePoseTime: 0
    m_StartTime: 0
    m_StopTime: 1.1833333
    m_OrientationOffsetY: 0
    m_Level: 0
    m_CycleOffset: 0
    m_HasAdditiveReferencePose: 0
    m_LoopTime: 1
    m_LoopBlend: 0
    m_LoopBlendOrientation: 0
    m_LoopBlendPositionY: 0
    m_LoopBlendPositionXZ: 0
    m_KeepOriginalOrientation: 0
    m_KeepOriginalPositionY: 1
    m_KeepOriginalPositionXZ: 0
    m_HeightFromFeet: 0
    m_Mirror: 0
  m_EditorCurves: []
  m_EulerEditorCurves: []
  m_HasGenericRootTransform: 0
  m_HasMotionFloatCurves: 0
  m_Events: []
