%YAML 1.1
%TAG !u! tag:unity3d.com,2011:
--- !u!74 &7400000
AnimationClip:
  m_ObjectHideFlags: 0
  m_CorrespondingSourceObject: {fileID: 0}
  m_PrefabInstance: {fileID: 0}
  m_PrefabAsset: {fileID: 0}
  m_Name: Dead
  serializedVersion: 6
  m_Legacy: 0
  m_Compressed: 0
  m_UseHighQualityCurve: 1
  m_RotationCurves: []
  m_CompressedRotationCurves: []
  m_EulerCurves: []
  m_PositionCurves: []
  m_ScaleCurves: []
  m_FloatCurves: []
  m_PPtrCurves:
  - curve:
    - time: 0
      value: {fileID: 21300000, guid: 4d2752a8a4b86bd4aa0329fb906c17a0, type: 3}
    - time: 0.06666667
      value: {fileID: 21300000, guid: 18c54c6e89595964b9a7167975c9c230, type: 3}
    - time: 0.13333334
      value: {fileID: 21300000, guid: 45492fa83de38e549a4161c326e75f3e, type: 3}
    - time: 0.18333334
      value: {fileID: 21300000, guid: 8b5aae160ee4d9143ad76c589c782b5e, type: 3}
    - time: 0.25
      value: {fileID: 21300000, guid: bec5ebc80b1bdd74bbea53f8df6ee498, type: 3}
    - time: 0.31666666
      value: {fileID: 21300000, guid: 9859a99059171ad4d90aae23b533ba6b, type: 3}
    - time: 0.36666667
      value: {fileID: 21300000, guid: bc50f70cf5538f241a52f6b8f7797892, type: 3}
    - time: 0.43333334
      value: {fileID: 21300000, guid: daa3b3fe647bd624e87a33aa192c6d02, type: 3}
    - time: 0.5
      value: {fileID: 21300000, guid: e669f8516c78c5d4484a2cab44bf8e8a, type: 3}
    - time: 0.56666666
      value: {fileID: 21300000, guid: 0ffa939992393f243a79288e1d4b89bf, type: 3}
    - time: 0.6333333
      value: {fileID: 21300000, guid: 515b52aca930d6a42802625799fdcc3a, type: 3}
    - time: 0.68333334
      value: {fileID: 21300000, guid: 76486a17ced03b941908dac8db871d5b, type: 3}
    - time: 0.75
      value: {fileID: 21300000, guid: 519c46799ffeb2e4c9741dd85400c4e7, type: 3}
    - time: 0.81666666
      value: {fileID: 21300000, guid: 7cf1f91575b97d842b4ba510a9d4d639, type: 3}
    - time: 0.8666667
      value: {fileID: 21300000, guid: 2e6175b6bf42d824d9a142f32961ac04, type: 3}
    - time: 0.93333334
      value: {fileID: 21300000, guid: 2acbc98747eed2a458ecdaf09ff871b4, type: 3}
    - time: 1
      value: {fileID: 21300000, guid: 123c059d5dcd8a44cb582a98fa34a987, type: 3}
    attribute: m_Sprite
    path: Anim
    classID: 212
    script: {fileID: 0}
  m_SampleRate: 60
  m_WrapMode: 0
  m_Bounds:
    m_Center: {x: 0, y: 0, z: 0}
    m_Extent: {x: 0, y: 0, z: 0}
  m_ClipBindingConstant:
    genericBindings:
    - serializedVersion: 2
      path: 3348745061
      attribute: 0
      script: {fileID: 0}
      typeID: 212
      customType: 23
      isPPtrCurve: 1
    pptrCurveMapping:
    - {fileID: 21300000, guid: 4d2752a8a4b86bd4aa0329fb906c17a0, type: 3}
    - {fileID: 21300000, guid: 18c54c6e89595964b9a7167975c9c230, type: 3}
    - {fileID: 21300000, guid: 45492fa83de38e549a4161c326e75f3e, type: 3}
    - {fileID: 21300000, guid: 8b5aae160ee4d9143ad76c589c782b5e, type: 3}
    - {fileID: 21300000, guid: bec5ebc80b1bdd74bbea53f8df6ee498, type: 3}
    - {fileID: 21300000, guid: 9859a99059171ad4d90aae23b533ba6b, type: 3}
    - {fileID: 21300000, guid: bc50f70cf5538f241a52f6b8f7797892, type: 3}
    - {fileID: 21300000, guid: daa3b3fe647bd624e87a33aa192c6d02, type: 3}
    - {fileID: 21300000, guid: e669f8516c78c5d4484a2cab44bf8e8a, type: 3}
    - {fileID: 21300000, guid: 0ffa939992393f243a79288e1d4b89bf, type: 3}
    - {fileID: 21300000, guid: 515b52aca930d6a42802625799fdcc3a, type: 3}
    - {fileID: 21300000, guid: 76486a17ced03b941908dac8db871d5b, type: 3}
    - {fileID: 21300000, guid: 519c46799ffeb2e4c9741dd85400c4e7, type: 3}
    - {fileID: 21300000, guid: 7cf1f91575b97d842b4ba510a9d4d639, type: 3}
    - {fileID: 21300000, guid: 2e6175b6bf42d824d9a142f32961ac04, type: 3}
    - {fileID: 21300000, guid: 2acbc98747eed2a458ecdaf09ff871b4, type: 3}
    - {fileID: 21300000, guid: 123c059d5dcd8a44cb582a98fa34a987, type: 3}
  m_AnimationClipSettings:
    serializedVersion: 2
    m_AdditiveReferencePoseClip: {fileID: 0}
    m_AdditiveReferencePoseTime: 0
    m_StartTime: 0
    m_StopTime: 1.0166667
    m_OrientationOffsetY: 0
    m_Level: 0
    m_CycleOffset: 0
    m_HasAdditiveReferencePose: 0
    m_LoopTime: 0
    m_LoopBlend: 0
    m_LoopBlendOrientation: 0
    m_LoopBlendPositionY: 0
    m_LoopBlendPositionXZ: 0
    m_KeepOriginalOrientation: 0
    m_KeepOriginalPositionY: 1
    m_KeepOriginalPositionXZ: 0
    m_HeightFromFeet: 0
    m_Mirror: 0
  m_EditorCurves: []
  m_EulerEditorCurves: []
  m_HasGenericRootTransform: 0
  m_HasMotionFloatCurves: 0
  m_Events: []
