%YAML 1.1
%TAG !u! tag:unity3d.com,2011:
--- !u!74 &7400000
AnimationClip:
  m_ObjectHideFlags: 0
  m_CorrespondingSourceObject: {fileID: 0}
  m_PrefabInstance: {fileID: 0}
  m_PrefabAsset: {fileID: 0}
  m_Name: SHIELD_dis
  serializedVersion: 6
  m_Legacy: 0
  m_Compressed: 0
  m_UseHighQualityCurve: 1
  m_RotationCurves: []
  m_CompressedRotationCurves: []
  m_EulerCurves: []
  m_PositionCurves: []
  m_ScaleCurves: []
  m_FloatCurves: []
  m_PPtrCurves:
  - curve:
    - time: 0
      value: {fileID: 9095601875304532796, guid: 97fe26394965cc24ea1720df29ed881b,
        type: 3}
    - time: 0.083333336
      value: {fileID: -4374719211765075035, guid: 97fe26394965cc24ea1720df29ed881b,
        type: 3}
    - time: 0.16666667
      value: {fileID: -5402257189250861089, guid: 97fe26394965cc24ea1720df29ed881b,
        type: 3}
    - time: 0.25
      value: {fileID: -3058474629510147905, guid: 97fe26394965cc24ea1720df29ed881b,
        type: 3}
    attribute: m_Sprite
    path: Anim
    classID: 212
    script: {fileID: 0}
  m_SampleRate: 60
  m_WrapMode: 0
  m_Bounds:
    m_Center: {x: 0, y: 0, z: 0}
    m_Extent: {x: 0, y: 0, z: 0}
  m_ClipBindingConstant:
    genericBindings:
    - serializedVersion: 2
      path: 3348745061
      attribute: 0
      script: {fileID: 0}
      typeID: 212
      customType: 23
      isPPtrCurve: 1
    pptrCurveMapping:
    - {fileID: 9095601875304532796, guid: 97fe26394965cc24ea1720df29ed881b, type: 3}
    - {fileID: -4374719211765075035, guid: 97fe26394965cc24ea1720df29ed881b, type: 3}
    - {fileID: -5402257189250861089, guid: 97fe26394965cc24ea1720df29ed881b, type: 3}
    - {fileID: -3058474629510147905, guid: 97fe26394965cc24ea1720df29ed881b, type: 3}
  m_AnimationClipSettings:
    serializedVersion: 2
    m_AdditiveReferencePoseClip: {fileID: 0}
    m_AdditiveReferencePoseTime: 0
    m_StartTime: 0
    m_StopTime: 0.26666668
    m_OrientationOffsetY: 0
    m_Level: 0
    m_CycleOffset: 0
    m_HasAdditiveReferencePose: 0
    m_LoopTime: 0
    m_LoopBlend: 0
    m_LoopBlendOrientation: 0
    m_LoopBlendPositionY: 0
    m_LoopBlendPositionXZ: 0
    m_KeepOriginalOrientation: 0
    m_KeepOriginalPositionY: 1
    m_KeepOriginalPositionXZ: 0
    m_HeightFromFeet: 0
    m_Mirror: 0
  m_EditorCurves: []
  m_EulerEditorCurves: []
  m_HasGenericRootTransform: 0
  m_HasMotionFloatCurves: 0
  m_Events: []
