%YAML 1.1
%TAG !u! tag:unity3d.com,2011:
--- !u!74 &7400000
AnimationClip:
  m_ObjectHideFlags: 0
  m_CorrespondingSourceObject: {fileID: 0}
  m_PrefabInstance: {fileID: 0}
  m_PrefabAsset: {fileID: 0}
  m_Name: SHIELD_pre
  serializedVersion: 6
  m_Legacy: 0
  m_Compressed: 0
  m_UseHighQualityCurve: 1
  m_RotationCurves: []
  m_CompressedRotationCurves: []
  m_EulerCurves: []
  m_PositionCurves: []
  m_ScaleCurves: []
  m_FloatCurves: []
  m_PPtrCurves:
  - curve:
    - time: 0
      value: {fileID: 6145314977833822264, guid: 89e5493ed233add43b7d15ee4e5ac3a9,
        type: 3}
    - time: 0.083333336
      value: {fileID: -2453259567219762635, guid: 89e5493ed233add43b7d15ee4e5ac3a9,
        type: 3}
    - time: 0.16666667
      value: {fileID: 2688213520126186132, guid: 89e5493ed233add43b7d15ee4e5ac3a9,
        type: 3}
    - time: 0.25
      value: {fileID: 4292630436995694775, guid: 89e5493ed233add43b7d15ee4e5ac3a9,
        type: 3}
    - time: 0.33333334
      value: {fileID: -1477392453499678816, guid: 89e5493ed233add43b7d15ee4e5ac3a9,
        type: 3}
    - time: 0.41666666
      value: {fileID: -1191851529193610502, guid: 89e5493ed233add43b7d15ee4e5ac3a9,
        type: 3}
    - time: 0.5
      value: {fileID: -2378549188043998939, guid: 89e5493ed233add43b7d15ee4e5ac3a9,
        type: 3}
    - time: 0.5833333
      value: {fileID: -4828397051859223747, guid: 89e5493ed233add43b7d15ee4e5ac3a9,
        type: 3}
    - time: 0.6666667
      value: {fileID: -8999204090973496193, guid: 89e5493ed233add43b7d15ee4e5ac3a9,
        type: 3}
    - time: 0.75
      value: {fileID: -3951289748125217023, guid: 89e5493ed233add43b7d15ee4e5ac3a9,
        type: 3}
    attribute: m_Sprite
    path: Anim
    classID: 212
    script: {fileID: 0}
  m_SampleRate: 60
  m_WrapMode: 0
  m_Bounds:
    m_Center: {x: 0, y: 0, z: 0}
    m_Extent: {x: 0, y: 0, z: 0}
  m_ClipBindingConstant:
    genericBindings:
    - serializedVersion: 2
      path: 3348745061
      attribute: 0
      script: {fileID: 0}
      typeID: 212
      customType: 23
      isPPtrCurve: 1
    pptrCurveMapping:
    - {fileID: 6145314977833822264, guid: 89e5493ed233add43b7d15ee4e5ac3a9, type: 3}
    - {fileID: -2453259567219762635, guid: 89e5493ed233add43b7d15ee4e5ac3a9, type: 3}
    - {fileID: 2688213520126186132, guid: 89e5493ed233add43b7d15ee4e5ac3a9, type: 3}
    - {fileID: 4292630436995694775, guid: 89e5493ed233add43b7d15ee4e5ac3a9, type: 3}
    - {fileID: -1477392453499678816, guid: 89e5493ed233add43b7d15ee4e5ac3a9, type: 3}
    - {fileID: -1191851529193610502, guid: 89e5493ed233add43b7d15ee4e5ac3a9, type: 3}
    - {fileID: -2378549188043998939, guid: 89e5493ed233add43b7d15ee4e5ac3a9, type: 3}
    - {fileID: -4828397051859223747, guid: 89e5493ed233add43b7d15ee4e5ac3a9, type: 3}
    - {fileID: -8999204090973496193, guid: 89e5493ed233add43b7d15ee4e5ac3a9, type: 3}
    - {fileID: -3951289748125217023, guid: 89e5493ed233add43b7d15ee4e5ac3a9, type: 3}
  m_AnimationClipSettings:
    serializedVersion: 2
    m_AdditiveReferencePoseClip: {fileID: 0}
    m_AdditiveReferencePoseTime: 0
    m_StartTime: 0
    m_StopTime: 0.76666665
    m_OrientationOffsetY: 0
    m_Level: 0
    m_CycleOffset: 0
    m_HasAdditiveReferencePose: 0
    m_LoopTime: 0
    m_LoopBlend: 0
    m_LoopBlendOrientation: 0
    m_LoopBlendPositionY: 0
    m_LoopBlendPositionXZ: 0
    m_KeepOriginalOrientation: 0
    m_KeepOriginalPositionY: 1
    m_KeepOriginalPositionXZ: 0
    m_HeightFromFeet: 0
    m_Mirror: 0
  m_EditorCurves: []
  m_EulerEditorCurves: []
  m_HasGenericRootTransform: 0
  m_HasMotionFloatCurves: 0
  m_Events: []
