%YAML 1.1
%TAG !u! tag:unity3d.com,2011:
--- !u!114 &11400000
MonoBehaviour:
  m_ObjectHideFlags: 0
  m_CorrespondingSourceObject: {fileID: 0}
  m_PrefabInstance: {fileID: 0}
  m_PrefabAsset: {fileID: 0}
  m_GameObject: {fileID: 0}
  m_Enabled: 1
  m_EditorHideFlags: 0
  m_Script: {fileID: 11500000, guid: a509783fd3bf03c4388000ffe3ebdc29, type: 3}
  m_Name: BaseCreep_Atk
  m_EditorClassIdentifier: 
  _Dmg: 10
  _ForceBack: {x: 100, y: 0}
