%YAML 1.1
%TAG !u! tag:unity3d.com,2011:
--- !u!74 &7400000
AnimationClip:
  m_ObjectHideFlags: 0
  m_CorrespondingSourceObject: {fileID: 0}
  m_PrefabInstance: {fileID: 0}
  m_PrefabAsset: {fileID: 0}
  m_Name: IDLE
  serializedVersion: 6
  m_Legacy: 0
  m_Compressed: 0
  m_UseHighQualityCurve: 1
  m_RotationCurves: []
  m_CompressedRotationCurves: []
  m_EulerCurves: []
  m_PositionCurves: []
  m_ScaleCurves: []
  m_FloatCurves: []
  m_PPtrCurves:
  - curve:
    - time: 0
      value: {fileID: 21300000, guid: 95f55a434ab042b439f87a366c06b882, type: 3}
    - time: 0.15
      value: {fileID: 21300000, guid: c9356fda2aa9c5d4b8a83003f557b6f0, type: 3}
    - time: 0.28333333
      value: {fileID: 21300000, guid: 9e7523a91b0776a4f8cdaa9287830957, type: 3}
    - time: 0.43333334
      value: {fileID: 21300000, guid: e592b3b31c4e4814b8d1b4a12b174121, type: 3}
    - time: 0.56666666
      value: {fileID: 21300000, guid: 11e2e32f12d6e9c46ae1745c0abdb76d, type: 3}
    - time: 0.71666664
      value: {fileID: 21300000, guid: 868a8ff4e0addf64594fbcf75e2aeef3, type: 3}
    - time: 0.85
      value: {fileID: 21300000, guid: 8fda7351fac22ef439209674c5f02796, type: 3}
    - time: 1
      value: {fileID: 21300000, guid: 09e5ee6b5b3e4344a8b8aa7e6c142d9a, type: 3}
    attribute: m_Sprite
    path: Anim
    classID: 212
    script: {fileID: 0}
  m_SampleRate: 60
  m_WrapMode: 0
  m_Bounds:
    m_Center: {x: 0, y: 0, z: 0}
    m_Extent: {x: 0, y: 0, z: 0}
  m_ClipBindingConstant:
    genericBindings:
    - serializedVersion: 2
      path: 3348745061
      attribute: 0
      script: {fileID: 0}
      typeID: 212
      customType: 23
      isPPtrCurve: 1
    pptrCurveMapping:
    - {fileID: 21300000, guid: 95f55a434ab042b439f87a366c06b882, type: 3}
    - {fileID: 21300000, guid: c9356fda2aa9c5d4b8a83003f557b6f0, type: 3}
    - {fileID: 21300000, guid: 9e7523a91b0776a4f8cdaa9287830957, type: 3}
    - {fileID: 21300000, guid: e592b3b31c4e4814b8d1b4a12b174121, type: 3}
    - {fileID: 21300000, guid: 11e2e32f12d6e9c46ae1745c0abdb76d, type: 3}
    - {fileID: 21300000, guid: 868a8ff4e0addf64594fbcf75e2aeef3, type: 3}
    - {fileID: 21300000, guid: 8fda7351fac22ef439209674c5f02796, type: 3}
    - {fileID: 21300000, guid: 09e5ee6b5b3e4344a8b8aa7e6c142d9a, type: 3}
  m_AnimationClipSettings:
    serializedVersion: 2
    m_AdditiveReferencePoseClip: {fileID: 0}
    m_AdditiveReferencePoseTime: 0
    m_StartTime: 0
    m_StopTime: 1.0166667
    m_OrientationOffsetY: 0
    m_Level: 0
    m_CycleOffset: 0
    m_HasAdditiveReferencePose: 0
    m_LoopTime: 1
    m_LoopBlend: 0
    m_LoopBlendOrientation: 0
    m_LoopBlendPositionY: 0
    m_LoopBlendPositionXZ: 0
    m_KeepOriginalOrientation: 0
    m_KeepOriginalPositionY: 1
    m_KeepOriginalPositionXZ: 0
    m_HeightFromFeet: 0
    m_Mirror: 0
  m_EditorCurves: []
  m_EulerEditorCurves: []
  m_HasGenericRootTransform: 0
  m_HasMotionFloatCurves: 0
  m_Events: []
